This is BibTeX, Version 0.99d (TeX Live 2015/Debian)
Capacity: max_strings=35307, hash_size=35307, hash_prime=30011
The top-level auxiliary file: inzynierka.aux
The style file: plain.bst
Database file #1: bibliografia.bib
Illegal end of database file---line 423 of file bibliografia.bib
 : 
 : 
(Error may have been on previous line)
I'm skipping whatever remains of this entry
Warning--to sort, need author or key in MIDI-spec
Warning--empty author in MIDI-spec
You've used 36 entries,
            2118 wiz_defined-function locations,
            743 strings with 10156 characters,
and the built_in function-call counts, 11487 in all, are:
= -- 1107
> -- 473
< -- 10
+ -- 199
- -- 154
* -- 761
:= -- 1882
add.period$ -- 109
call.type$ -- 36
change.case$ -- 180
chr.to.int$ -- 0
cite$ -- 38
duplicate$ -- 472
empty$ -- 972
format.name$ -- 154
if$ -- 2450
int.to.chr$ -- 0
int.to.str$ -- 36
missing$ -- 37
newline$ -- 182
num.names$ -- 70
pop$ -- 205
preamble$ -- 1
purify$ -- 148
quote$ -- 0
skip$ -- 330
stack$ -- 0
substring$ -- 700
swap$ -- 105
text.length$ -- 10
text.prefix$ -- 0
top$ -- 0
type$ -- 134
warning$ -- 2
while$ -- 104
width$ -- 38
write$ -- 388
(There was 1 error message)
