\relax 
\citation{GOOD01-musicXML}
\citation{MIDI-spec}
\@writefile{toc}{\contentsline {chapter}{Wst\IeC {\k e}p}{2}}
\@writefile{toc}{\contentsline {section}{Zadanie postawione w pracy}{2}}
\@writefile{toc}{\contentsline {section}{Za\IeC {\l }o\IeC {\.z}enia}{2}}
\@writefile{toc}{\contentsline {section}{Organizacja dokumentu}{2}}
\citation{ZGANIACZ02}
\citation{PAPADOPOULOS02}
\citation{FRITZ75-temperament}
\@writefile{toc}{\contentsline {chapter}{\numberline {1}Wybrane zagadnienia teorii muzyki}{3}}
\@writefile{lof}{\addvspace {10\p@ }}
\@writefile{lot}{\addvspace {10\p@ }}
\@writefile{toc}{\contentsline {section}{\numberline {1.1}Odleg\IeC {\l }o\IeC {\'s}ci mi\IeC {\k e}dzy d\IeC {\'z}wi\IeC {\k e}kami}{3}}
\@writefile{toc}{\contentsline {subsection}{\numberline {1.1.1}Skala pitagorejska}{3}}
\@writefile{toc}{\contentsline {subsection}{\numberline {1.1.2}Str\IeC {\'o}j r\IeC {\'o}wnomiernie temperowany}{3}}
\newlabel{subsec:2_tem}{{1.1.2}{3}}
\@writefile{toc}{\contentsline {section}{\numberline {1.2}Pi\IeC {\k e}ciolinia i nazwy d\IeC {\'z}wi\IeC {\k e}k\IeC {\'o}w}{3}}
\@writefile{lof}{\contentsline {figure}{\numberline {1.1}{\ignorespaces Klawisze pianina razem z nazwami d\IeC {\'z}wi\IeC {\k e}k\IeC {\'o}w\relax }}{4}}
\providecommand*\caption@xref[2]{\@setref\relax\@undefined{#1}}
\newlabel{fig:piano1}{{1.1}{4}}
\@writefile{lof}{\contentsline {figure}{\numberline {1.2}{\ignorespaces Nuty na pi\IeC {\k e}ciolinii razem z nazwami\relax }}{4}}
\newlabel{fig:notes-begin}{{1.2}{4}}
\@writefile{toc}{\contentsline {section}{\numberline {1.3}Nazwy oktaw}{4}}
\@writefile{lot}{\contentsline {table}{\numberline {1.1}{\ignorespaces Tabela z nazwami oktaw i zakresami d\IeC {\'z}wi\IeC {\k e}k\IeC {\'o}w.\relax }}{4}}
\@writefile{toc}{\contentsline {section}{\numberline {1.4}Klucze muzyczne}{4}}
\@writefile{lof}{\contentsline {figure}{\numberline {1.3}{\ignorespaces Klucze wiolinowy, altowy i basowy z liniami charakterystycznymi dla nich\relax }}{4}}
\@writefile{lof}{\contentsline {figure}{\numberline {1.4}{\ignorespaces Klucz wiolinowy z zaznaczonym przeniesieniem d\IeC {\'z}wi\IeC {\k e}k\IeC {\'o}w oktaw\IeC {\k e} ni\IeC {\.z}ej\relax }}{5}}
\@writefile{toc}{\contentsline {section}{\numberline {1.5}Interwa\IeC {\l }y}{5}}
\@writefile{lot}{\contentsline {table}{\numberline {1.2}{\ignorespaces Tabela z nazwami interwa\IeC {\l }\IeC {\'o}w\relax }}{5}}
\@writefile{toc}{\contentsline {section}{\numberline {1.6}Znaki chromatyczne}{5}}
\@writefile{toc}{\contentsline {section}{\numberline {1.7}Enharmonia}{5}}
\@writefile{lof}{\contentsline {figure}{\numberline {1.5}{\ignorespaces D\IeC {\'z}wi\IeC {\k e}ki na klawiaturze pianina z nazwami czarnych klawiszy\relax }}{5}}
\@writefile{toc}{\contentsline {section}{\numberline {1.8}Skala muzyczna}{6}}
\@writefile{toc}{\contentsline {section}{\numberline {1.9}Gama}{6}}
\@writefile{lof}{\contentsline {figure}{\numberline {1.6}{\ignorespaces gamy C-dur, c-moll naturalna i a-moll naturalna\relax }}{6}}
\@writefile{toc}{\contentsline {section}{\numberline {1.10}Tonacja i znaki przykluczowe}{6}}
\@writefile{lof}{\contentsline {figure}{\numberline {1.7}{\ignorespaces Po lewej gama Des-dur bez znak\IeC {\'o}w przykluczowych, po prawej ze znakami\relax }}{6}}
\@writefile{toc}{\contentsline {section}{\numberline {1.11}Czasy trwania nut i pauz}{6}}
\citation{SIKORSKI10}
\@writefile{lof}{\contentsline {figure}{\numberline {1.8}{\ignorespaces Kszta\IeC {\l }ty nut i pauz\relax }}{7}}
\@writefile{lof}{\contentsline {figure}{\numberline {1.9}{\ignorespaces Przyk\IeC {\l }ad wykorzystania ligatur\relax }}{7}}
\@writefile{toc}{\contentsline {section}{\numberline {1.12}Podzia\IeC {\l } taktowy i metrum}{7}}
\@writefile{lof}{\contentsline {figure}{\numberline {1.10}{\ignorespaces Dwa takty utworu w metrum 5/4\relax }}{7}}
\@writefile{toc}{\contentsline {section}{\numberline {1.13}Skale d\IeC {\'z}wi\IeC {\k e}k\IeC {\'o}w w uk\IeC {\l }adzie czterog\IeC {\l }osowym}{7}}
\newlabel{sec:4}{{1.13}{7}}
\citation{BEN13-ATM}
\citation{MIDI-spec}
\citation{GOOD01-musicXML}
\citation{PLUMBLEY02-ATM}
\citation{BEN13-ATM}
\citation{POLINER07-MelodyEvaluation}
\citation{BELLO00-Techniques}
\citation{RYYNANEN04-Modeling}
\citation{PLUMBLEY02-ATM}
\citation{PLUMBLEY02-ATM}
\citation{PLUMBLEY02-ATM}
\@writefile{toc}{\contentsline {chapter}{\numberline {2}Konwersja \IeC {\'s}piewu do notacji muzycznej}{8}}
\@writefile{lof}{\addvspace {10\p@ }}
\@writefile{lot}{\addvspace {10\p@ }}
\@writefile{toc}{\contentsline {section}{\numberline {2.1}Badane parametry d\IeC {\'z}wi\IeC {\k e}ku}{8}}
\@writefile{toc}{\contentsline {section}{\numberline {2.2}Przyk\IeC {\l }ady system\IeC {\'o}w ATM}{8}}
\@writefile{toc}{\contentsline {subsection}{\numberline {2.2.1}Transkrypcja muzyki monofonicznej}{8}}
\newlabel{subsec: 4_system_mono}{{2.2.1}{8}}
\citation{BEN13-ATM}
\citation{BEN13-ATM}
\citation{BEN13-ATM}
\citation{Klapuri-Thesis}
\citation{PERTUSA10-Book}
\citation{POLINER06-HMM}
\citation{RYYNANEN04-Modeling}
\citation{POLINER07-MelodyEvaluation}
\citation{Klapuri-Thesis}
\citation{POLINER07-MelodyEvaluation}
\@writefile{lof}{\contentsline {figure}{\numberline {2.1}{\ignorespaces Diagram blokowy monofonicznego systemu transkrypcji \cite  {PLUMBLEY02-ATM}.\relax }}{9}}
\newlabel{fig:boat1}{{2.1}{9}}
\@writefile{lof}{\contentsline {figure}{\numberline {2.2}{\ignorespaces Przyk\IeC {\l }ad drugiej struktury systemu ATM \cite  {BEN13-ATM}.\relax }}{9}}
\@writefile{toc}{\contentsline {subsection}{\numberline {2.2.2}Transkrypcja muzyki polifonicznej}{9}}
\citation{DRESSLER05}
\citation{MAROLT04}
\citation{GOTO04}
\citation{RYYNANEN07}
\citation{POLINER05}
\citation{PAIVA04}
\citation{VINCENT05}
\citation{OSOWSKI16}
\@writefile{lot}{\contentsline {table}{\numberline {2.1}{\ignorespaces Tabela opisuj\IeC {\k a}ca systemy ATM zaprezentowane podczas konkursu MIREX\relax }}{10}}
\citation{BEN13-ATM}
\citation{BEN13-ATM}
\citation{BEN13-ATM}
\@writefile{toc}{\contentsline {subsection}{\numberline {2.2.3}Uog\IeC {\'o}lniona struktura systemu ATM}{11}}
\@writefile{lof}{\contentsline {figure}{\numberline {2.3}{\ignorespaces Uog\IeC {\'o}lniona struktura systemu ATM \cite  {BEN13-ATM}.\relax }}{11}}
\citation{POLINER07-MelodyEvaluation}
\citation{MAKOWSKI11-ARM}
\citation{RABINER77-Auto}
\citation{TALKIN95-RAPT}
\citation{CHEVEIGNE02-Yin}
\citation{OSOWSKI16}
\citation{NOLL67-Cepstrum-Pitch}
\citation{CUADRA01-Pitch}
\citation{PERTUSA10-Book}
\citation{ROSS74-AMDF}
\citation{CHEVEIGNE02-Yin}
\citation{RYYNANEN04-Modeling}
\@writefile{toc}{\contentsline {chapter}{\numberline {3}Algorytmy}{12}}
\@writefile{lof}{\addvspace {10\p@ }}
\@writefile{lot}{\addvspace {10\p@ }}
\@writefile{toc}{\contentsline {section}{\numberline {3.1}Wykrywanie wysoko\IeC {\'s}ci d\IeC {\'z}wi\IeC {\k e}ku}{12}}
\@writefile{toc}{\contentsline {subsection}{\numberline {3.1.1}Autokorelacja (ACF)}{12}}
\newlabel{ACF}{{3.1}{12}}
\newlabel{ACF2}{{3.2}{12}}
\newlabel{ACF-f0}{{3.3}{12}}
\@writefile{toc}{\contentsline {subsection}{\numberline {3.1.2}Average Magnitude Difference Function (AMDF)}{12}}
\newlabel{AMDF}{{3.4}{12}}
\@writefile{toc}{\contentsline {subsection}{\numberline {3.1.3}Algorytm Yin}{12}}
\newlabel{subsec:4_yin}{{3.1.3}{12}}
\citation{OSOWSKI16}
\citation{OSOWSKI16}
\citation{OSOWSKI16}
\@writefile{toc}{\contentsline {subsubsection}{Krok 1 - Obliczenie warto\IeC {\'s}ci SDF}{13}}
\@writefile{toc}{\contentsline {subsubsection}{Krok 2 - Obliczenie warto\IeC {\'s}ci CMNDF}{13}}
\newlabel{macierz}{{3.6}{13}}
\@writefile{toc}{\contentsline {subsubsection}{Krok 3 - Ustawienie globalnego progu}{13}}
\@writefile{toc}{\contentsline {subsubsection}{Krok 4 - Interpolacja paraboliczna}{13}}
\@writefile{toc}{\contentsline {subsection}{\numberline {3.1.4}Kr\IeC {\'o}tkoczasowa transformata Fouriera (STFT)}{13}}
\newlabel{AMDF}{{3.7}{13}}
\@writefile{toc}{\contentsline {subsubsection}{Dob\IeC {\'o}r szeroko\IeC {\'s}ci okna}{13}}
\newlabel{AMDF}{{3.8}{13}}
\@writefile{toc}{\contentsline {subsubsection}{Dob\IeC {\'o}r kszta\IeC {\l }tu okna}{13}}
\newlabel{macierz}{{3.10}{13}}
\citation{OSOWSKI16}
\citation{BELLO05-Tutorial}
\citation{BELLO05-Tutorial}
\citation{FOOTE01-Beat}
\newlabel{macierz}{{3.12}{14}}
\newlabel{macierz}{{3.13}{14}}
\@writefile{toc}{\contentsline {subsubsection}{Uzupe\IeC {\l }nianie zerami}{14}}
\@writefile{toc}{\contentsline {section}{\numberline {3.2}Wykrywanie pocz\IeC {\k a}tk\IeC {\'o}w nut}{14}}
\@writefile{toc}{\contentsline {subsection}{\numberline {3.2.1}Wa\IeC {\.z}enie energii sygna\IeC {\l }u}{14}}
\@writefile{toc}{\contentsline {subsection}{\numberline {3.2.2}\textit  {Beat spectrum}}{14}}
\newlabel{subsec:4_beat}{{3.2.2}{14}}
\@writefile{toc}{\contentsline {subsubsection}{Krok 1 - Parametryzacja}{14}}
\@writefile{toc}{\contentsline {subsubsection}{Krok 2 - Utworzenie macierzy podobie\IeC {\'n}stwa}{14}}
\citation{FOOTE00-Kernel}
\citation{MAKOWSKI11-ARM}
\@writefile{toc}{\contentsline {subsubsection}{Krok 3 - Utworzenie \textit  {beat spectrum}}{15}}
\@writefile{toc}{\contentsline {subsubsection}{Dodatkowy Krok 4 - Wyznaczenie pocz\IeC {\k a}tk\IeC {\'o}w d\IeC {\'z}wi\IeC {\k e}k\IeC {\'o}w}{15}}
\newlabel{eq:novelty}{{3.19}{15}}
\@writefile{toc}{\contentsline {section}{\numberline {3.3}Detekcja aktywno\IeC {\'s}ci m\IeC {\'o}wcy}{15}}
\@writefile{toc}{\contentsline {subsection}{\numberline {3.3.1}Detekcja na podstawie amplitudy sygna\IeC {\l }u}{15}}
\newlabel{subsec:4_ampl}{{3.3.1}{15}}
\@writefile{toc}{\contentsline {subsection}{\numberline {3.3.2}Detekcja na podstawie energii sygna\IeC {\l }u}{15}}
\citation{Alonso03-Tempo}
\citation{TEMPERLEY99-key}
\citation{KRUMHANSL01-key}
\@writefile{toc}{\contentsline {section}{\numberline {3.4}Wykrywanie tempa utworu}{16}}
\@writefile{toc}{\contentsline {subsection}{\numberline {3.4.1}Sumowanie funkcji autokowariancji}{16}}
\@writefile{toc}{\contentsline {subsubsection}{Krok 1 - Podzia\IeC {\l } na zakresy}{16}}
\@writefile{toc}{\contentsline {subsubsection}{Krok 2 - Wyznaczenie pocz\IeC {\k a}tk\IeC {\'o}w nut}{16}}
\@writefile{toc}{\contentsline {subsubsection}{Krok 3 - Wyznaczenie tempa}{16}}
\@writefile{toc}{\contentsline {section}{\numberline {3.5}Wykrywanie tonacji utworu}{16}}
\newlabel{subsec:key}{{3.5}{16}}
\@writefile{lot}{\contentsline {table}{\numberline {3.1}{\ignorespaces Warto\IeC {\'s}ci wektora profilu tonacji durowej na przyk\IeC {\l }adzie gamy C-dur\relax }}{17}}
\@writefile{lot}{\contentsline {table}{\numberline {3.2}{\ignorespaces Warto\IeC {\'s}ci wektora profilu tonacji molowej na przyk\IeC {\l }adzie gamy c-moll\relax }}{17}}
\citation{PLUMBLEY02-ATM}
\citation{BEN13-ATM}
\citation{BEN13-ATM}
\citation{BEN13-ATM}
\@writefile{toc}{\contentsline {chapter}{\numberline {4}Budowa stworzonego systemu ATM}{18}}
\@writefile{lof}{\addvspace {10\p@ }}
\@writefile{lot}{\addvspace {10\p@ }}
\@writefile{toc}{\contentsline {section}{\numberline {4.1}Og\IeC {\'o}lna budowa systemu}{18}}
\@writefile{lof}{\contentsline {figure}{\numberline {4.1}{\ignorespaces Uog\IeC {\'o}lniona struktura systemu ATM \cite  {BEN13-ATM}.\relax }}{18}}
\@writefile{toc}{\contentsline {section}{\numberline {4.2}Blok detekcji aktywno\IeC {\'s}ci m\IeC {\'o}wcy}{18}}
\@writefile{toc}{\contentsline {section}{\numberline {4.3}Blok wykrywania wysoko\IeC {\'s}ci d\IeC {\'z}wi\IeC {\k e}ku}{18}}
\@writefile{toc}{\contentsline {subsection}{\numberline {4.3.1}Wst\IeC {\k e}pna filtracja sygna\IeC {\l }u}{18}}
\citation{OSOWSKI16}
\@writefile{lof}{\contentsline {figure}{\numberline {4.2}{\ignorespaces Dane z bloku detekcji aktywno\IeC {\'s}ci m\IeC {\'o}wcy\relax }}{19}}
\@writefile{toc}{\contentsline {subsection}{\numberline {4.3.2}Analiza wysoko\IeC {\'s}ci d\IeC {\'z}wi\IeC {\k e}ku}{19}}
\citation{SALAMON14}
\citation{BELLO05-Tutorial}
\newlabel{fig:pitch1}{{4.3a}{21}}
\newlabel{sub@fig:pitch1}{{a}{21}}
\newlabel{fig:pitch2}{{4.3b}{21}}
\newlabel{sub@fig:pitch2}{{b}{21}}
\newlabel{fig:pitch3}{{4.3c}{21}}
\newlabel{sub@fig:pitch3}{{c}{21}}
\newlabel{fig:pitch4}{{4.3d}{21}}
\newlabel{sub@fig:pitch4}{{d}{21}}
\newlabel{fig:pitch5}{{4.3e}{21}}
\newlabel{sub@fig:pitch5}{{e}{21}}
\newlabel{fig:pitch6}{{4.3f}{21}}
\newlabel{sub@fig:pitch6}{{f}{21}}
\newlabel{fig:pitch7}{{4.3g}{21}}
\newlabel{sub@fig:pitch7}{{g}{21}}
\newlabel{fig:pitch8}{{4.3h}{21}}
\newlabel{sub@fig:pitch8}{{h}{21}}
\@writefile{lof}{\contentsline {figure}{\numberline {4.3}{\ignorespaces Poszczeg\IeC {\'o}lne kroki dzia\IeC {\l }ania bloku wykrywania wysoko\IeC {\'s}ci d\IeC {\'z}wi\IeC {\k e}ku\relax }}{21}}
\@writefile{toc}{\contentsline {section}{\numberline {4.4}Blok wykrywania pocz\IeC {\k a}tk\IeC {\'o}w d\IeC {\'z}wi\IeC {\k e}k\IeC {\'o}w}{21}}
\@writefile{lof}{\contentsline {figure}{\numberline {4.4}{\ignorespaces Oryginalny sygna\IeC {\l } \IeC {\'s}piewu\relax }}{22}}
\newlabel{fig:org}{{4.4}{22}}
\@writefile{lof}{\contentsline {figure}{\numberline {4.5}{\ignorespaces Wykryte pocz\IeC {\k a}tki d\IeC {\'z}wi\IeC {\k e}k\IeC {\'o}w\relax }}{22}}
\newlabel{fig:onset}{{4.5}{22}}
\@writefile{toc}{\contentsline {section}{\numberline {4.5}Blok wykrywania tempa utworu}{22}}
\@writefile{toc}{\contentsline {section}{\numberline {4.6}Blok decyzyjny}{22}}
\@writefile{toc}{\contentsline {subsection}{\numberline {4.6.1}Weryfikacja wykrytych pocz\IeC {\k a}tk\IeC {\'o}w nut}{22}}
\@writefile{toc}{\contentsline {subsection}{\numberline {4.6.2}Analiza wysoko\IeC {\'s}ci nut}{23}}
\@writefile{toc}{\contentsline {subsubsection}{Tryb relacyjny}{23}}
\@writefile{toc}{\contentsline {subsubsection}{Tryb medianowy}{23}}
\@writefile{lof}{\contentsline {figure}{\numberline {4.7}{\ignorespaces Oryginalny fragment utworu\relax }}{23}}
\newlabel{fig:norg}{{4.7}{23}}
\newlabel{fig:conset1}{{4.6c}{24}}
\newlabel{sub@fig:conset1}{{c}{24}}
\newlabel{fig:conset2}{{4.6d}{24}}
\newlabel{sub@fig:conset2}{{d}{24}}
\newlabel{fig:conset3}{{4.6e}{24}}
\newlabel{sub@fig:conset3}{{e}{24}}
\newlabel{fig:conset4}{{4.6f}{24}}
\newlabel{sub@fig:conset4}{{f}{24}}
\newlabel{fig:conset5}{{4.6g}{24}}
\newlabel{sub@fig:conset5}{{g}{24}}
\@writefile{lof}{\contentsline {figure}{\numberline {4.6}{\ignorespaces Stan LPP (czerwony) i LZP (zielony) po dw\IeC {\'o}ch krokach weryfikacji\relax }}{24}}
\@writefile{lof}{\contentsline {figure}{\numberline {4.8}{\ignorespaces Fragment utworzony na podstawie danych wynikowych trybu medianowego\relax }}{24}}
\newlabel{fig:nmed}{{4.8}{24}}
\@writefile{toc}{\contentsline {subsection}{\numberline {4.6.3}Analiza czasu trwania nut}{24}}
\newlabel{subsec:time}{{4.6.3}{24}}
\citation{TEMPERLEY99-key}
\@writefile{lof}{\contentsline {figure}{\numberline {4.9}{\ignorespaces Fragment utworzony na podstawie analizy czasu trwania nut\relax }}{25}}
\@writefile{toc}{\contentsline {subsection}{\numberline {4.6.4}Uwzgl\IeC {\k e}dnienie pauz}{25}}
\@writefile{lof}{\contentsline {figure}{\numberline {4.10}{\ignorespaces Fragment utworzony z danych po analizie wyst\IeC {\k e}powania pauz\relax }}{25}}
\@writefile{toc}{\contentsline {subsection}{\numberline {4.6.5}Wyznaczenie znak\IeC {\'o}w przykluczowych}{25}}
\@writefile{toc}{\contentsline {subsection}{\numberline {4.6.6}Dodanie pozosta\IeC {\l }ych informacji do partytury}{25}}
\@writefile{toc}{\contentsline {chapter}{\numberline {5}Opis aplikacji i wykorzystane technologie}{26}}
\@writefile{lof}{\addvspace {10\p@ }}
\@writefile{lot}{\addvspace {10\p@ }}
\@writefile{toc}{\contentsline {section}{\numberline {5.1}Wykorzystane technologie}{26}}
\@writefile{toc}{\contentsline {subsubsection}{PyQt5}{26}}
\@writefile{toc}{\contentsline {subsubsection}{music21}{26}}
\@writefile{toc}{\contentsline {subsubsection}{scipy, numpy i matplotlib}{26}}
\@writefile{toc}{\contentsline {section}{\numberline {5.2}Interfejs graficzny}{26}}
\newlabel{fig:app1}{{5.1a}{27}}
\newlabel{sub@fig:app1}{{a}{27}}
\@writefile{lof}{\contentsline {figure}{\numberline {5.1}{\ignorespaces Interfejs graficzny przygotowanej aplikacji.\relax }}{27}}
\@writefile{toc}{\contentsline {chapter}{\numberline {6}Testy aplikacji}{28}}
\@writefile{lof}{\addvspace {10\p@ }}
\@writefile{lot}{\addvspace {10\p@ }}
\@writefile{toc}{\contentsline {section}{\numberline {6.1}Nagrania testowe}{28}}
\@writefile{toc}{\contentsline {section}{\numberline {6.2}Blok wykrywania wysoko\IeC {\'s}ci d\IeC {\'z}wi\IeC {\k e}ku}{28}}
\@writefile{lot}{\contentsline {table}{\numberline {6.1}{\ignorespaces Analiza skuteczno\IeC {\'s}ci wykr. wys. d\IeC {\'z}wi\IeC {\k e}ku dla poszczeg\IeC {\'o}lnych nagra\IeC {\'n}\relax }}{28}}
\@writefile{lot}{\contentsline {table}{\numberline {6.2}{\ignorespaces Zbiorcza analiza skuteczno\IeC {\'s}ci wykr. wys. d\IeC {\'z}wi\IeC {\k e}ku\relax }}{28}}
\@writefile{toc}{\contentsline {section}{\numberline {6.3}Blok wykrywania pocz\IeC {\k a}tk\IeC {\'o}w d\IeC {\'z}wi\IeC {\k e}k\IeC {\'o}w}{29}}
\@writefile{lot}{\contentsline {table}{\numberline {6.3}{\ignorespaces Analiza skuteczno\IeC {\'s}ci wykr. pocz. d\IeC {\'z}wi\IeC {\k e}ku dla poszczeg\IeC {\'o}lnych nagra\IeC {\'n}\relax }}{29}}
\@writefile{lot}{\contentsline {table}{\numberline {6.4}{\ignorespaces Zbiorcza analiza skuteczno\IeC {\'s}ci wykr. pocz. d\IeC {\'z}wi\IeC {\k e}ku\relax }}{29}}
\@writefile{toc}{\contentsline {section}{\numberline {6.4}Blok wykrywania tempa utworu}{29}}
\@writefile{lot}{\contentsline {table}{\numberline {6.5}{\ignorespaces Wyniki analizy skuteczno\IeC {\'s}ci wykrywania tempa\relax }}{29}}
\@writefile{toc}{\contentsline {section}{\numberline {6.5}Blok wykrywania aktywno\IeC {\'s}ci m\IeC {\'o}wcy}{29}}
\newlabel{fig:act2}{{6.1b}{30}}
\newlabel{sub@fig:act2}{{b}{30}}
\@writefile{toc}{\contentsline {section}{\numberline {6.6}Ocena systemu - blok decyzyjny}{30}}
\@writefile{lot}{\contentsline {table}{\numberline {6.6}{\ignorespaces Analiza skuteczno\IeC {\'s}ci bloku decyzyjnego dla poszczeg\IeC {\'o}lnych nagra\IeC {\'n}\relax }}{30}}
\@writefile{lot}{\contentsline {table}{\numberline {6.7}{\ignorespaces Zbiorcza analiza skuteczno\IeC {\'s}ci bloku decyzyjnego\relax }}{30}}
\@writefile{toc}{\contentsline {section}{\numberline {6.7}Ocena jako\IeC {\'s}ciowa wykonanych transkrypcji}{31}}
\@writefile{lof}{\contentsline {figure}{\numberline {6.2}{\ignorespaces Zapis ,,Ody do rado\IeC {\'s}ci'' wykonany przez stworzony system ATM\relax }}{31}}
\@writefile{lof}{\contentsline {figure}{\numberline {6.3}{\ignorespaces Fragment transkrypcji orygina\IeC {\l }u ,,Ody do rado\IeC {\'s}ci''\relax }}{31}}
\@writefile{lof}{\contentsline {figure}{\numberline {6.4}{\ignorespaces Fragment transkrypcji ,,Ody do rado\IeC {\'s}ci'' w wykonaniu g\IeC {\l }osu m\IeC {\k e}skiego\relax }}{32}}
\citation{POLINER07-MelodyEvaluation}
\@writefile{toc}{\contentsline {chapter}{Podsumowanie}{33}}
\@writefile{toc}{\contentsline {chapter}{\numberline {A}Za\IeC {\l }\IeC {\k a}czniki}{34}}
\@writefile{lof}{\addvspace {10\p@ }}
\@writefile{lot}{\addvspace {10\p@ }}
\@writefile{toc}{\contentsline {subsubsection}{Dodatkowe}{34}}
\@writefile{toc}{\contentsline {section}{\numberline {A.1}Testy systemu - Panie Janie (sylaba ,,pa'')}{35}}
\@writefile{lof}{\contentsline {figure}{\numberline {A.1}{\ignorespaces Wynik dzia\IeC {\l }ania bloku wykr. wys. d\IeC {\'z}wi\IeC {\k e}ku\relax }}{35}}
\@writefile{lof}{\contentsline {figure}{\numberline {A.2}{\ignorespaces Wynik dzia\IeC {\l }ania bloku wykr. pocz. d\IeC {\'z}wi\IeC {\k e}ku\relax }}{35}}
\@writefile{lof}{\contentsline {figure}{\numberline {A.3}{\ignorespaces Wynik dzia\IeC {\l }ania aplikacji\relax }}{35}}
\@writefile{lot}{\contentsline {table}{\numberline {A.1}{\ignorespaces Dane wyj\IeC {\'s}ciowe podsystem\IeC {\'o}w pobocznych aplikacji.  Panie Janie (,,pa'')\relax }}{36}}
\@writefile{lot}{\contentsline {table}{\numberline {A.2}{\ignorespaces Dane wyj\IeC {\'s}ciowe bloku decyzyjnego.  Panie Janie (,,pa'')\relax }}{36}}
\@writefile{toc}{\contentsline {section}{\numberline {A.2}Testy systemu - Panie Janie (tekst)}{37}}
\@writefile{lof}{\contentsline {figure}{\numberline {A.4}{\ignorespaces Wynik dzia\IeC {\l }ania bloku wykr. wys. d\IeC {\'z}wi\IeC {\k e}ku\relax }}{37}}
\@writefile{lof}{\contentsline {figure}{\numberline {A.5}{\ignorespaces Wynik dzia\IeC {\l }ania bloku wykr. pocz. d\IeC {\'z}wi\IeC {\k e}ku\relax }}{37}}
\@writefile{lof}{\contentsline {figure}{\numberline {A.6}{\ignorespaces Wynik dzia\IeC {\l }ania aplikacji\relax }}{37}}
\@writefile{lot}{\contentsline {table}{\numberline {A.3}{\ignorespaces Dane wyj\IeC {\'s}ciowe podsystem\IeC {\'o}w pobocznych aplikacji   Panie Janie (tekst)\relax }}{38}}
\@writefile{lot}{\contentsline {table}{\numberline {A.4}{\ignorespaces Dane wyj\IeC {\'s}ciowe bloku decyzyjnego.   Panie Janie (tekst)\relax }}{38}}
\@writefile{toc}{\contentsline {section}{\numberline {A.3}Testy systemu - Oda do rado\IeC {\'s}ci (sylaba ,,pa'')}{39}}
\@writefile{lof}{\contentsline {figure}{\numberline {A.7}{\ignorespaces Wynik dzia\IeC {\l }ania bloku wykr. wys. d\IeC {\'z}wi\IeC {\k e}ku\relax }}{39}}
\@writefile{lof}{\contentsline {figure}{\numberline {A.8}{\ignorespaces Wynik dzia\IeC {\l }ania bloku wykr. pocz. d\IeC {\'z}wi\IeC {\k e}ku\relax }}{39}}
\@writefile{lof}{\contentsline {figure}{\numberline {A.9}{\ignorespaces Wynik dzia\IeC {\l }ania aplikacji\relax }}{39}}
\@writefile{lot}{\contentsline {table}{\numberline {A.5}{\ignorespaces Dane wyj\IeC {\'s}ciowe podsystem\IeC {\'o}w pobocznych aplikacji   Oda\nobreakspace  {}do\nobreakspace  {}rado\IeC {\'s}ci\nobreakspace  {}(,,pa'')\relax }}{40}}
\@writefile{lot}{\contentsline {table}{\numberline {A.6}{\ignorespaces Dane wyj\IeC {\'s}ciowe bloku decyzyjnego.   Oda do rado\IeC {\'s}ci (,,pa'')\relax }}{41}}
\@writefile{toc}{\contentsline {section}{\numberline {A.4}Testy systemu - Oda do rado\IeC {\'s}ci (tekst)}{42}}
\@writefile{lof}{\contentsline {figure}{\numberline {A.10}{\ignorespaces Wynik dzia\IeC {\l }ania bloku wykr. wys. d\IeC {\'z}wi\IeC {\k e}ku\relax }}{42}}
\@writefile{lof}{\contentsline {figure}{\numberline {A.11}{\ignorespaces Wynik dzia\IeC {\l }ania bloku wykr. pocz. d\IeC {\'z}wi\IeC {\k e}ku\relax }}{42}}
\@writefile{lof}{\contentsline {figure}{\numberline {A.12}{\ignorespaces Wynik dzia\IeC {\l }ania aplikacji\relax }}{42}}
\@writefile{lot}{\contentsline {table}{\numberline {A.7}{\ignorespaces Dane wyj\IeC {\'s}ciowe podsystem\IeC {\'o}w pobocznych aplikacji   Oda do rado\IeC {\'s}ci (tekst)\relax }}{43}}
\@writefile{lot}{\contentsline {table}{\numberline {A.8}{\ignorespaces Dane wyj\IeC {\'s}ciowe bloku decyzyjnego.   Oda do rado\IeC {\'s}ci (tekst)\relax }}{44}}
\@writefile{toc}{\contentsline {section}{\numberline {A.5}Wzorcowe transkrypcje}{44}}
\@writefile{lof}{\contentsline {figure}{\numberline {A.13}{\ignorespaces Poprawna transkrypcja utworu ,,Panie Janie''\relax }}{44}}
\@writefile{lof}{\contentsline {figure}{\numberline {A.14}{\ignorespaces Poprawna transkrypcja utworu ,,Oda do rado\IeC {\'s}ci''\relax }}{45}}
\bibdata{bibliografia}
\bibcite{MIDI-spec}{1}
\bibcite{Alonso03-Tempo}{2}
\bibcite{BELLO05-Tutorial}{3}
\bibcite{BELLO00-Techniques}{4}
\bibcite{BEN13-ATM}{5}
\bibcite{CHEVEIGNE02-Yin}{6}
\bibcite{CUADRA01-Pitch}{7}
\bibcite{DRESSLER05}{8}
\bibcite{FOOTE00-Kernel}{9}
\bibcite{FOOTE01-Beat}{10}
\bibcite{GOTO04}{11}
\bibcite{Klapuri-Thesis}{12}
\bibcite{KRUMHANSL01-key}{13}
\bibcite{FRITZ75-temperament}{14}
\bibcite{MAKOWSKI11-ARM}{15}
\bibcite{MAROLT04}{16}
\bibcite{GOOD01-musicXML}{17}
\bibcite{NOLL67-Cepstrum-Pitch}{18}
\bibcite{OSOWSKI16}{19}
\bibcite{PAIVA04}{20}
\bibcite{PAPADOPOULOS02}{21}
\bibcite{PERTUSA10-Book}{22}
\bibcite{PLUMBLEY02-ATM}{23}
\bibcite{POLINER07-MelodyEvaluation}{24}
\bibcite{POLINER06-HMM}{25}
\bibcite{POLINER05}{26}
\bibcite{RABINER77-Auto}{27}
\bibcite{ROSS74-AMDF}{28}
\bibcite{RYYNANEN07}{29}
\bibcite{RYYNANEN04-Modeling}{30}
\bibcite{SALAMON14}{31}
\bibcite{SIKORSKI10}{32}
\bibcite{TALKIN95-RAPT}{33}
\bibcite{TEMPERLEY99-key}{34}
\bibcite{VINCENT05}{35}
\bibcite{ZGANIACZ02}{36}
\bibstyle{plain}
